{
  "title": "ThesisRoles",
  "searchExpression": "",
  "columns": [
    {
      "name": "member/id",
      "property": "id",
      "title": "Theses.StudentId",
      "hidden": true
    },
    {
      "name": "member/familyName",
      "property": "familyName",
      "title": "Theses.familyName",
      "hidden": true
    },
    {
      "name": "member/givenName",
      "property": "givenName",
      "title": "Theses.InstructorFullName",
      "formatter": "TemplateFormatter",
      "formatString": "${familyName} ${givenName}"
    },
    {
      "name": "member/category",
      "property": "category",
      "title": "Theses.Category"
    },
    {
      "name": "member/department/abbreviation",
      "property": "department",
      "title": "Theses.DepartmentName"
    },
    {
      "name":"roleName",
      "property": "roleName",
      "title":"Theses.RoleName",
      "formatter": "TranslationFormatter",
      "formatString": "Theses.RoleNames.${value}"
    },
    {
      "name": "factor",
      "property": "factor",
      "title": "Theses.Coefficient",
      "className": "text-center"
    }
  ],
  "defaults":{
    "orderBy": "index asc"
  },
  "criteria": [ ],
  "paths" : [ ]
}
