{
  "title": "InternshipStatus.available",
  "model": "Internships",
  "searchExpression": "indexof(student/person/familyName, '${text}') ge 0 or indexof(student/studentIdentifier, '${text}') ge 0 or indexof(student/person/givenName, '${text}') ge 0 or indexof(name, '${text}') ge 0",
  "selectable": true,
  "multipleSelect": true,
  "columns": [
    {
      "name": "id",
      "virtual": true,
      "property": "id",
      "formatter": "ButtonFormatter",
      "className": "text-center",
      "placeholder": "Internships.Preview",
      "formatOptions": {
        "buttonContent": "<i class=\"fas fa-search text-indigo\"></i>",
        "buttonClass": "btn btn-default",
        "commands": [
          "/internships",
          "${id}",
          "preview",
          "general"
        ]
      }
    },
    {
      "name": "id",
      "formatter": "ButtonFormatter",
      "className": "text-center",
      "placeholder": "Internships.Edit",
      "formatOptions": {
        "buttonContent": "<i class=\"fas fa-edit text-indigo\"></i>",
        "buttonClass": "btn btn-default",
        "commands": [
          {
            "outlets": {
              "modal": [
                "${id}",
                "edit"
              ]
            }
          }
        ]
      }
    },
    {
      "name": "id",
      "property": "internshipId",
      "title": "Internships.Id",
      "hidden": true,
      "optional": true
    },
    {
      "name": "name",
      "title": "Internships.Subject"
    },
    {
      "name": "internshipYear/name",
      "property": "academicYear",
      "title": "Internships.YearAlternateName"
    },
    {
      "name": "internshipPeriod/name",
      "property": "academicPeriod",
      "title": "Internships.InternshipPeriodAlternateName"
    },
    {
      "name": "department/abbreviation",
      "property": "departmentAbbreviation",
      "title": "Internships.Department"
    },
    {
      "name": "company/name",
      "property": "companyName",
      "title": "Internships.Company"
    },
    {
      "name": "dateModified",
      "property": "dateModified",
      "title": "Internships.DateModified",
      "formatter": "DateTimeFormatter",
      "formatString": "short"
    },
    {
      "name": "companyContact",
      "property": "companyContact",
      "title": "Internships.CompanyContact",
      "hidden": true,
      "optional": true
    },
    {
      "name": "companyContactPhone",
      "property": "companyContactPhone",
      "title": "Internships.CompanyContactPhone",
      "hidden": true,
      "optional": true
    }
  ],
  "defaults": {
    "filter": "(department eq ${currentDepartment} and status/alternateName eq 'potential' and student eq null)",
    "orderBy": "dateModified desc"
  },
  "criteria": [
    {
      "name": "subjectName",
      "title": "Internships.Subject",
      "filter": "(indexof(name, '${value}') ge 0)",
      "type": "text"
    },
    {
      "name": "companyName",
      "title": "Internships.Company",
      "filter": "(indexof(company/name, '${value}') ge 0)",
      "type": "text"
    },
    {
      "name": "academicYear",
      "title": "Internships.AcademicYear",
      "filter": "(internshipYear/id eq '${value}')",
      "type": "text"
    },
    {
      "name": "academicPeriod",
      "title": "Internships.AcademicPeriod",
      "filter": "(internshipPeriod/alternateName eq '${value}')",
      "type": "text"
    }
  ],
  "searches": [],
  "paths": []
}
