{
  "model": "courseClassInstructors",
  "title": "instructor classes",
  "searchExpression":"indexof(courseClass/title, '${text}') ge 0 or indexof(courseClass/course/displayCode, '${text}') ge 0 or indexof(courseClass/year/alternateName, '${text}') ge 0 )",
  "columns": [
    {
      "name": "courseClass/course/displayCode",
      "property": "displayCode",
      "title": "Classes.DisplayCode"
    },
    {
      "name": "courseClass/title",
      "property": "title",
      "title": "Classes.ClassTitle"
    },
    {
      "name": "courseClass/department/abbreviation",
      "property": "department",
      "title": "Classes.DepartmentName"
    },
    {
      "name": "courseClass/year/alternateName",
      "property": "year",
      "title": "Classes.Year"
    },
    {
      "name": "courseClass/period/name",
      "property": "period",
      "title": "Classes.Period"
    },
    {
      "name": "courseClass/numberOfStudents",
      "property": "numberOfStudents",
      "title": "Classes.NumberOfStudents"
    },
    {
      "name": "courseClass/maxNumberOfStudents",
      "property": "maxNumberOfStudents",
      "title": "Classes.MaxNumberOfStudents"
    },
    {
      "name": "courseClass/weekHours",
      "property": "weekHours",
      "title": "Classes.WeekHours"
    },
    {
      "name": "courseClass/totalHours",
      "property": "totalHours",
      "title": "Classes.TotalHours"
    },
    {
      "name":"courseClass/id",
      "property": "id",
      "formatter": "ButtonFormatter",
      "className": "text-center",
      "formatOptions": {
        "buttonContent": "<i class=\"far fa-eye text-indigo\"></i>",
        "buttonClass": "btn btn-default",
        "commands": ["/classes", "${id}", "dashboard", "overview"]
      }
    }
  ],
  "criteria": [
    {
      "name": "classTitle",
      "filter": "(indexof(courseClass/title, '${value}') ge 0)",
      "type": "text"
    },
    {
      "name": "displayCode",
      "filter": "(indexof(courseClass/course/displayCode, '${value}') ge 0)",
      "type": "text"
    },
    {
      "name": "numberOfStudentsGreaterThan",
      "filter": "(courseClass/numberOfStudents ge '${value}')",
      "type": "text"
    },
    {
      "name": "numberOfStudentsLowerThan",
      "filter": "(courseClass/numberOfStudents le '${value}')",
      "type": "text"
    },
    {
      "name": "academicYear",
      "filter": "(courseClass/year/alternateName eq '${value}')",
      "type": "text"
    },
    {
      "name": "academicPeriod",
      "filter": "(courseClass/period/alternateName eq '${value}')",
      "type": "text"
    },
    {
      "name": "instructorID",
      "filter": "(instructor eq '${value}')",
      "type": "text"
    }
  ]
}
