{
  "title": "AcademicCards",
  "model": "AcademicCards",
  "columns": [
    {
      "name": "student/id",
      "property": "studentId",
      "hidden": true
    },
    {
      "name": "id",
      "property": "id",
      "hidden": true
    },
    {
      "name": "escn",
      "property": "escn",
      "hidden": false,
      "title": "AcademicCard.EuropeanStudentCardNumber"
    },
    {
      "name": "esi",
      "property": "esi",
      "hidden": false,
      "title": "AcademicCard.EuropeanStudentIdentifier"
    },
    {
      "name": "nacn",
      "property": "nacn",
      "hidden": false,
      "title": "AcademicCard.NationalAcademicCardNumber"
    },
    {
      "name": "isActive",
      "property": "isActive",
      "hidden": false,
      "title": "AcademicCard.isActive",
      "formatter": "TrueFalseFormatter"
    },
    {
      "name": "expiryDate",
      "property": "expiryDate",
      "hidden": false,
      "title": "AcademicCard.expiryDate",
      "formatter": "DateTimeFormatter",
      "formatString": "shortDate"
    },
    {
      "name": "status/alternateName",
      "property": "status",
      "title": "Students.Status",
      "formatter": "TranslationFormatter",
      "formatString": "AcademicCard.AcademicCardStatuses.${value}",
      "hidden": false
    },
    {
      "name": "statusMessage",
      "property": "statusMessage",
      "title": "AcademicCard.statusMessage",
      "hidded": "false"
    },
    {
      "name": "cardType",
      "property": "cardType",
      "hidden": false,
      "title": "AcademicCard.cardType"
    },
    {
      "name": "cardUid",
      "property": "cardUid",
      "hidden": false,
      "title": "AcademicCard.cardUid"
    }
  ],
  "defaults":{
    "orderBy": "isActive desc"
  }
}
