{
    "model": "PercentileRankActionResults",
    "searchExpression": "indexof(student/studentIdentifier, '${text}') ge 0 or indexof(student/person/givenName, '${text}') ge 0 or indexof(student/person/familyName, '${text}') ge 0 or indexof(student/user/name, '${text}') ge 0 or indexof(course/displayCode, '${text}') ge 0 or indexof(course/name, '${text}') ge 0",
    "columns": [
        {
            "name": "student/id",
            "property": "studentId",
            "formatter": "ButtonFormatter",
            "formatString": "#/students/${studentId}/dashboard/courses/",
            "className": "text-center",
            "formatOptions": {
                "buttonContent": "<i class=\"far fa-eye text-indigo\"></i>",
                "buttonClass": "btn btn-default"
            }
        },
        {
            "name": "student/person/givenName",
            "property": "givenName",
            "title": "Students.GivenName",
            "hidden": true
        },
        {
            "name": "student/person/familyName",
            "property": "familyName",
            "title": "Graduations.FullName",
            "formatter": "TemplateFormatter",
            "formatString": "${familyName} ${givenName}"
        },
        {
            "name": "student/studentIdentifier",
            "property": "studentIdentifier",
            "title": "Students.studentIdentifier"
        },
        {
            "name": "course/displayCode",
            "property": "courseDisplayCode",
            "title": "Graduations.CourseDisplayCode"
        },
        {
            "name": "course/name",
            "property": "courseName",
            "title": "Graduations.CourseName"
        },
        {
            "name": "updated",
            "property": "updated",
            "title": "Graduations.Updated",
            "className": "text-center",
            "formatters": [
                {
                    "formatter": "TrueFalseFormatter"
                },
                {
                    "formatter": "NgClassFormatter",
                    "formatOptions": {
                        "ngClass": {
                            "text-success": "${!!updated}",
                            "text-danger": "${!updated}"
                        }
                    }
                }
            ]
        },
        {
            "name": "result",
            "property": "result",
            "title": "Graduations.PercentileRankValue",
            "className": "text-right"
        },
        {
            "name": "action/dateCreated",
            "property": "dateCreated",
            "title": "Graduations.CalculationDateCreated",
            "formatter": "DateTimeFormatter",
            "formatString": "short"
        },
        {
            "name": "action/createdBy/alternateName",
            "property": "createdBy",
            "title": "Graduations.CalculationCreatedBy"
        },
        {
            "name": "action/actionStatus/alternateName",
            "property": "actionStatus",
            "title": "Graduations.RelatedActionStatus",
            "formatters": [
                {
                    "formatter": "TranslationFormatter",
                    "formatString": "Graduations.CalculateClassesPercentileRank.ActionStatusTypes.${value}"
                },
                {
                    "formatter": "NgClassFormatter",
                    "formatOptions": {
                        "ngClass": {
                            "text-danger": "'${actionStatus}'==='CancelledActionStatus' || '${actionStatus}'==='FailedActionStatus'",
                            "text-primary": "'${actionStatus}'==='ActiveActionStatus' || '${actionStatus}'==='PotentialActionStatus'",
                            "text-success": "'${actionStatus}'==='CompletedActionStatus'"
                        }
                    }
                }
            ]
        }
    ],
    "criteria": [
        {
            "name": "studentIdentifier",
            "filter": "(student/studentIdentifier eq '${value}')",
            "type": "text"
        },
        {
            "name": "studentName",
            "filter": "(indexof(student/person/familyName, '${value}') ge 0 or indexof(student/person/givenName, '${value}') ge 0)",
            "type": "text"
        },
        {
            "name": "studentUsername",
            "filter": "(indexof(student/user/name, '${value}') ge 0)",
            "type": "text"
        },
        {
            "name": "courseName",
            "filter": "(indexof(course/name, '${value}') ge 0)",
            "type": "text"
        },
        {
            "name": "courseDisplayCode",
            "filter": "(indexof(course/displayCode, '${value}') ge 0)",
            "type": "text"
        },
        {
            "name": "successfullyUpdated",
            "filter": "${value >=1 ? '(updated eq true)': '(updated eq false)'}",
            "type": "text"
        },
        {
            "name": "actionId",
            "filter": "(action/id eq '${value}')",
            "type": "text"
        },
        {
            "name": "actionStatus",
            "filter": "(action/actionStatus/alternateName eq '${value}')",
            "type": "text"
        },
      {
        "name": "graduationEventId",
        "filter": "(action/targetIdentifier eq '${value}')",
        "type": "text"
      }
    ],
    "defaults": {}
}
