{
	"title": "Events.RecursiveEvents",
	"model": "ExceptHoursSpecifications",
	"searchExpression": "(indexof(name, '${text}') ge 0) or (day(startDate) eq ${/^\\d+$/.test(text) ? text : 0}) or (indexof(description, '${text}') ge 0)",
	"calendarView": false,
	"selectable": true,
	"defaults": {
		"orderBy": "validFrom desc"
	},
	"multipleSelect": true,
	"columns": [
		{
			"name": "validFrom",
			"property": "validFrom",
			"title": "Settings.Lists.ExceptHoursSpecifications.From",
			"formatter": "DateTimeFormatter",
			"formatString": "shortDate"
		},
		{
			"name": "validThrough",
			"property": "validThrough",
			"title": "Settings.Lists.ExceptHoursSpecifications.To",
			"formatter": "DateTimeFormatter",
			"formatString": "shortDate"
		},
		{
			"name": "opens",
			"property": "opens",
			"hidden": true
		},
		{
			"name": "closes",
			"property": "closes",
			"hidden": true
		},
		{
			"name": "name",
			"property": "name",
			"title": "Settings.Attributes.title",
			"hidden": false
		},
		{
			"name": "academicYear",
			"property": "academicYear",
			"title": "Settings.Attributes.title",
			"hidden": false
		},
		{
			"name": "description",
			"property": "description",
			"title": "Settings.Attributes.description",
			"hidden": false
		},
		{
			"name": "updateEventStatus",
			"property": "updateEventStatus",
			"formatter": "TrueFalseFormatter",
			"title": "Settings.Lists.ExceptHoursSpecifications.AutoUpdate"
		},
		{
			"name": "eventExceptStatus/alternateName",
			"property": "eventExceptStatus",
			"title": "Settings.Lists.ExceptHoursSpecifications.ExceptStatus",
			"formatter": "TranslationFormatter",
			"formatString": "EventStatuses.${value}"
		},
		{
			"name": "id",
			"formatter": "ButtonFormatter",
			"formatString": "(modal:edit)",
			"className": "text-center",
			"formatOptions": {
				"buttonContent": "<i class=\"far fa-edit text-indigo\"></i>",
				"buttonClass": "btn btn-default"
			}
		}
	],
	"searches": [],
	"paths": [],
	"criteria": [
		{
			"name": "eventName",
			"filter": "(indexof(name, '${value}') ge 0)",
			"type": "text"
		},
		{
			"name": "sections",
			"filter": "(sections/section eq ${value})",
			"type": "text"
		},
		{
			"name": "minDate",
			"filter": "(eventHoursSpecification/validFrom ge '${new Date(value).toISOString()}')",
			"type": "text"
		},
		{
			"name": "maxDate",
			"filter": "(eventHoursSpecification/validFrom le '${new Date(new Date(value).setHours(23,59,59,59)).toISOString()}')",
			"type": "text"
		},
		{
			"name": "status",
			"filter": "(eventStatus eq '${value}')",
			"type": "text"
		},
		{
			"name": "performer",
			"filter": "(${(Array.isArray(value) ? value : [value]).map(val => 'performer/alternateName eq ' + \"'\" + val + \"'\").join(' or ')})",
			"type": "text"
		},
		{
			"name": "courseClass",
			"filter": "(${(Array.isArray(value) ? value : [value]).map(val => 'courseClass eq ' + \"'\" + val + \"'\").join(' or ')})",
			"type": "text"
		}
	]
}