{
    "title": "StudyPrograms",
    "model": "StudyPrograms",
    "searchExpression":"indexof(name, '${text}') ge 0 or indexof(department/name, '${text}') ge 0 or indexof(studyLevel/name, '${text}') ge 0",
    "columns": [
      {
        "name":"id",
        "property": "id",
        "formatter": "ActionLinkFormatter",
        "actions" : [
          {
            "title": "StudyPrograms.Preview",
            "href": "#/study-programs/${id}/",
            "role": "preview"
          },
          {
            "title": "StudyPrograms.EditStudyProgram",
            "href": "#/study-programs/${id}/edit",
            "role": "edit"
          },
          {
            "title": "StudyPrograms.ThesisRules",
            "href": "#/study-programs/${id}/preview/(modal:/thesisRules)",
            "role": "action"
          },
          {
            "title": "StudyPrograms.InternshipRules",
            "href": "#/study-programs/${id}/preview/(modal:/internshipRules)",
            "role": "action"
          },
          {
            "title": "StudyPrograms.GraduateCalculationRules",
            "href": "#/study-programs/${id}/preview/(modal:/graduateCalculationMode)",
            "role": "action"
          },
          {
            "title": "StudyPrograms.CopyProgram",
            "href": "#/study-programs/${id}/preview/(modal:/copyProgram)",
            "role": "action"
          },
          {
            "title": "StudyPrograms.DeleteProgram.Description",
            "invoke": "deleteStudyProgram",
            "role": "method",
            "href": "#/study-programs/${id}/"
          }
        ]

      },
      {
        "name":"isActive",
        "property": "isActive",
        "title":"StudyPrograms.Active.Singular",
        "formatter": "TrueFalseFormatter"
      },
      {
        "name":"name",
        "property": "name",
        "title":"StudyPrograms.Name"
      },
      {
        "name":"department/name",
        "property": "departmentName",
        "title":"StudyPrograms.DepartmentName"
      },
      {
        "name":"studyLevel/alternateName",
        "property": "studyLevel",
        "title":"StudyPrograms.StudyLevel",
        "formatter": "TranslationFormatter",
        "formatString": "StudyLevels.${value}"
      },
      {
        "name":"semesters",
        "property": "semesters",
        "title":"StudyPrograms.Semesters"
      },
      {
        "name":"abbreviation",
        "property": "abbreviation",
        "title":"StudyPrograms.Abbreviation"
      },
      {
        "name":"decimalDigits",
        "property": "decimalDigits",
        "title":"StudyPrograms.DecimalDigits"
      }
    ],
    "defaults":{
      "filter": "(department eq ${currentDepartment})"
    },
    "criteria": [
      {
        "name": "name",
        "filter": "(indexof(name, '${value}') ge 0)",
        "type": "text"
      },
      {
        "name": "studylevel",
        "filter": "(studyLevel/alternateName eq '${value}')",
        "type": "text"
      },
      {
        "name": "active",
        "filter": "(isActive eq '${value}')",
        "type": "text"
      },
      {
        "name": "abbreviation",
        "filter": "(indexof(abbreviation, '${value}') ge 0)",
        "type": "text"
      }
    ],
    "paths" : [
      {
        "name": "StudyPrograms.Active.Plural",
        "alternateName": "list/active",
        "show": true,
        "filter": {
        }
      },
      {
          "name": "StudyPrograms.All",
          "show": true,
          "alternateName": "list/index",
          "filter": { }
      }
    ]
  }
