{
  "title": "Requests.ActiveStudentRequestActions",
  "model": "StudyProgramRegisterActions",
  "searchExpression": "(indexof(candidate/person/familyName, '${text}') ge 0 or indexof(candidate/inscriptionNumber, '${text}') ge 0  or indexof(candidate/person/givenName, '${text}') ge 0 or indexof(studyProgram/name, '${text}') ge 0)",
  "selectable": true,
  "multipleSelect": true,
  "columns": [
    {
      "name": "id",
      "property": "id",
      "title": "ID",
      "hidden": true
    },
    {
      "name": "candidate/person/familyName",
      "property": "familyName",
      "title": "Requests.FullName",
      "formatter": "TemplateFormatter",
      "formatString": "${familyName} ${givenName}"
    },
    {
      "name": "candidate/person/givenName",
      "property": "givenName",
      "title": "Requests.GivenName",
      "hidden": true
    },
    {
      "name": "candidate/id",
      "property": "candidateIdentifier",
      "title": "Register.CandidateId",
      "hidden": true
    },
    {
      "name": "studyProgram/name",
      "property": "studyProgramName",
      "title": "Register.StudyProgram"
    },
    {
      "name": "specialization/abbreviation",
      "property": "specialtyAbbreviation",
      "title": "Register.StudyProgramSpecialty"
    },
    {
      "name": "candidate/inscriptionNumber",
      "property": "inscriptionNumber",
      "title": "Register.CandidateNumber"
    },
    {
      "name": "inscriptionYear/alternateName",
      "property": "inscriptionYear",
      "title": "Register.InscriptionYear"
    },
    {
      "name": "inscriptionPeriod/name",
      "property": "inscriptionPeriod",
      "title": "Register.InscriptionPeriod"
    },
    {
      "name": "dateCreated",
      "property": "dateCreated",
      "title": "Requests.CreationDate",
      "formatter": "DateTimeFormatter",
      "formatString": "short",
      "hidden": true
    },
    {
      "name": "endTime",
      "property": "endTime",
      "title": "Register.DateSubmitted",
      "formatter": "DateTimeFormatter",
      "formatString": "short"
    },
    {
      "name": "dateModified",
      "property": "dateModified",
      "title": "Requests.DateModified",
      "formatter": "DateTimeFormatter",
      "formatString": "short"
    },
    {
      "name": "agent/name",
      "property": "agentName",
      "title": "Register.Agent"
    },
    {
      "name": "owner",
      "property": "owner",
      "title": "Register.Owner",
      "hidden": true
    },
    {
      "name": "messages",
      "property": "messages",
      "virtual": true,
      "sortable": false,
      "title": "Register.Messages",
      "formatters": [
        {
          "formatter": "TemplateFormatter",
          "formatString": "${messages  && messages.length?'<i class=icon-bell></i><sup class=\"badge badge-pill badge-danger\">' + messages[0].totalMessages + '</sup>':'-'}"
        }

      ]
    },
    {
      "name": "messagesLastSent",
      "property": "messagesLastSent",
      "virtual": true,
      "sortable": false,
      "title": "Register.LastMessage",
      "formatters": [
        {
          "formatter": "TemplateFormatter",
          "formatString": "${messages  && messages.length?messages[0].lastSent:null}"
        },
        {
          "formatter": "DateTimeFormatter",
          "formatString": "short"
        }
      ]
    },
    {
      "name": "actionStatus/alternateName",
      "property": "actionStatus",
      "title": "Requests.Preview.Status",
      "formatters": [
        {
          "formatter": "TranslationFormatter",
          "formatString": "ActionStatusTypes.${value}"
        },
        {
          "formatter": "NgClassFormatter",
          "formatOptions": {
            "ngClass": {
              "text-danger": "'${actionStatus}'==='CancelledActionStatus' || '${actionStatus}'==='FailedActionStatus'",
              "text-primary": "'${actionStatus}'==='ActiveActionStatus' || '${actionStatus}'==='PotentialActionStatus'",
              "text-success": "'${actionStatus}'==='CompletedActionStatus'"
            }
          }
        }
      ]
    },
    {
      "name": "id",
      "property": "altId",
      "placeholder": "Register.Edit",
      "formatter": "ButtonFormatter",
      "formatString": "#/candidates/item/${id}/edit",
      "className": "text-center",
      "formatOptions": {
        "buttonContent": "<i class=\"far fa-eye text-indigo\"></i>",
        "buttonClass": "btn btn-default",
        "commands": [
          {
            "outlets": {
              "modal": [
                "item",
                "${id}",
                "edit"
              ]
            }
          }
        ],
        "navigationExtras": {
          "replaceUrl": false,
          "skipLocationChange": true
        }
      }
    },
    {
      "name": "candidate/person/email",
      "property": "email",
      "title": "Email",
      "hidden": true
    },
    {
      "name": "studyProgramEnrollmentEvent/inscriptionYear/id",
      "property": "inscriptionYearId",
      "title": "Register.InscriptionYearId",
      "hidden": true
    },
    {
      "name": "candidate/department/currentYear/id",
      "property": "currentYear",
      "title": "Register.CurrentYearId",
      "hidden": true
    },
    {
      "name": "candidate/inscriptionMode/alternateName",
      "property": "inscriptionModeAlternateName",
      "title": "Register.InscriptionMode",
      "hidden": true,
      "optional": true
    }
  ],
  "defaults": {
    "filter": "(studyProgram/department eq ${currentDepartment})",
    "orderBy": "dateCreated desc",
    "expand": "messages($select=action,count(id) as totalMessages,max(dateCreated) as lastSent;$groupby=action;$filter=recipient/name eq 'Registrar')"
  },
  "paths": [],
  "criteria": [
    {
      "name": "candidateName",
      "filter": "(indexof(candidate/person/email, '${value}') ge 0 or indexof(candidate/person/familyName, '${value}') ge 0 or indexof(candidate/person/givenName, '${value}') ge 0)",
      "type": "text"
    },
    {
      "name": "actionStatus",
      "filter": "(actionStatus/alternateName eq '${value}')",
      "type": "text"
    },
    {
      "name": "startTime",
      "filter": "(startTime eq '${value}')",
      "type": "text"
    },
    {
      "name": "inscriptionNumber",
      "filter": "(candidate/inscriptionNumber eq '${value}')",
      "type": "text"
    },
    {
      "name": "inscriptionYear",
      "filter": "(candidate/inscriptionYear/id eq '${value}')",
      "type": "text"
    },
    {
      "name": "inscriptionPeriod",
      "filter": "(candidate/inscriptionPeriod/id eq '${value}')",
      "type": "text"
    },
    {
      "name": "inscriptionMode",
      "filter": "(${(Array.isArray(value) ? value : [value]).map(val => 'candidate/inscriptionMode/id eq ' + \"'\" + val + \"'\").join(' or ')})",
      "type": "text"
    },
    {
      "name": "studyProgram",
      "filter": "(studyProgram eq ${value})",
      "type": "text"
    }
  ],
  "searches": []
}
