{
    "model": "AutoRegisterClassActionResults",
    "searchExpression": "indexof(student/studentIdentifier, '${text}') ge 0 or indexof(student/person/givenName, '${text}') ge 0 or indexof(student/person/familyName, '${text}') ge 0 or indexof(student/user/name, '${text}') ge 0",
    "columns": [
        {
            "name": "student/id",
            "property": "studentId",
            "formatter": "ButtonFormatter",
            "formatString": "#/students/${studentId}/dashboard/registrations/",
            "className": "text-center",
            "formatOptions": {
                "buttonContent": "<i class=\"far fa-eye text-indigo\"></i>",
                "buttonClass": "btn btn-default"
            }
        },
        {
            "name": "student/person/givenName",
            "property": "givenName",
            "title": "Students.GivenName",
            "hidden": true
        },
        {
            "name": "student/person/familyName",
            "property": "familyName",
            "title": "Students.fullName",
            "formatter": "TemplateFormatter",
            "formatString": "${familyName} ${givenName}"
        },
        {
            "name": "student/studentIdentifier",
            "property": "studentIdentifier",
            "title": "Students.studentIdentifier"
        },
        {
            "name": "student/semester",
            "property": "semester",
            "title": "Students.semester"
        },
        {
            "name": "action/registrationYear/alternateName",
            "property": "academicYear",
            "title": "Labels.AcademicYear"
        },
        {
            "name": "action/registrationPeriod/alternateName",
            "property": "period",
            "title": "Labels.PeriodLabel",
            "formatter": "TranslationFormatter",
            "formatString": "Periods.${value}"
        },
        {
            "name": "action/onlyObligatory",
            "property": "onlyObligatory",
            "hidden": true
        },
        {
            "name": "action/notPassedObligatory",
            "property": "notPassedObligatory",
            "hidden": true
        },
        {
            "name": "actionCriteria",
            "property": "actionCriteria",
            "virtual": true,
            "title": "Departments.AutoRegisterClassesAction.ActionCriteria",
            "formatters": [
                {
                    "formatter": "TemplateFormatter",
                    "formatString": "${onlyObligatory ? 'onlyObligatory' : courseType ? 'notPassed' : notPassedObligatory ? 'notPassedObligatory' : 'specificSelection'}"
                },
                {
                    "formatter": "TranslationFormatter",
                    "formatString": "Departments.AutoRegisterClassesAction.ActionCriteriaType.${value}"
                }
            ]
        },
        {
            "name": "action/courseType/name",
            "property": "courseType",
            "title": "Departments.AutoRegisterClassesAction.CourseType",
            "formatter": "TemplateFormatter",
            "className": "text-center",
            "formatString": "${!courseType ? '-' : courseType}"
        },
        {
            "name": "forRegister",
            "property": "forRegister",
            "className": "text-center",
            "title": "Departments.AutoRegisterClassesAction.ForRegister"
        },
        {
            "name": "registered",
            "property": "registered",
            "className": "text-center",
            "title": "Departments.AutoRegisterClassesAction.Registered"
        },
        {
            "name": "failed",
            "property": "failed",
            "className": "text-center",
            "title": "Departments.AutoRegisterClassesAction.Failed"
        },
        {
            "name": "alreadyRegistered",
            "property": "alreadyRegistered",
            "className": "text-center",
            "title": "Departments.AutoRegisterClassesAction.AlreadyRegistered"
        },
        {
            "name": "action/dateCreated",
            "property": "dateCreated",
            "title": "Departments.AutoRegisterClassesAction.StartDate",
            "formatter": "DateTimeFormatter",
            "formatString": "short"
        },
        {
            "name": "action/createdBy/alternateName",
            "property": "createdBy",
            "title": "Departments.AutoRegisterClassesAction.CreatedBy"
        },
        {
            "name": "action/actionStatus/alternateName",
            "property": "actionStatus",
            "title": "Departments.AutoRegisterClassesAction.RelatedActionStatus",
            "formatters": [
                {
                    "formatter": "TranslationFormatter",
                    "formatString": "Departments.AutoRegisterClassesAction.ActionStatusTypes.${value}"
                },
                {
                    "formatter": "NgClassFormatter",
                    "formatOptions": {
                        "ngClass": {
                            "text-danger": "'${actionStatus}'==='CancelledActionStatus' || '${actionStatus}'==='FailedActionStatus'",
                            "text-primary": "'${actionStatus}'==='ActiveActionStatus' || '${actionStatus}'==='PotentialActionStatus'",
                            "text-success": "'${actionStatus}'==='CompletedActionStatus'"
                        }
                    }
                }
            ]
        },
        {
            "name": "message",
            "property": "message",
            "hidden": true
        },
        {
            "name": "id",
            "property": "id",
            "title": "Departments.AutoRegisterClassesAction.FailureReasonTableTitle",
            "className": "text-center",
            "formatters": [
                {
                    "formatter": "ButtonFormatter",
                    "formatString": "#/departments/current/automated-registrations/results/(modal:${id}/message)",
                    "className": "text-center",
                    "formatOptions": {
                        "buttonTitle": "Departments.AutoRegisterClassesAction.FailureReason",
                        "buttonText": "Departments.AutoRegisterClassesAction.FailureReason",
                        "buttonClass": "btn btn-default text-theme"
                    }
                },
                {
                    "formatter": "NgClassFormatter",
                    "formatOptions": {
                        "ngClass": {
                            "text-center": "${message != null}",
                            "d-none": "${message == null}"
                        }
                    }
                }
            ]
        }
    ],
  "defaults":{
    "filter": "(action/department eq '${currentDepartment}')"
  },
    "criteria": [
        {
            "name": "studentIdentifier",
            "filter": "(student/studentIdentifier eq '${value}')",
            "type": "text"
        },
        {
            "name": "studentName",
            "filter": "(indexof(student/person/familyName, '${value}') ge 0 or indexof(student/person/givenName, '${value}') ge 0)",
            "type": "text"
        },
        {
            "name": "studentUsername",
            "filter": "(indexof(student/user/name, '${value}') ge 0)",
            "type": "text"
        },
        {
            "name": "actionId",
            "filter": "(action/id eq '${value}')",
            "type": "text"
        },
        {
            "name": "actionStatus",
            "filter": "(action/actionStatus/alternateName eq '${value}')",
            "type": "text"
        },
        {
            "name": "inscriptionYear",
            "filter": "(student/inscriptionYear/id eq '${value}')",
            "type": "text"
        },
        {
            "name": "inscriptionPeriod",
            "filter": "(student/inscriptionPeriod/id eq '${value}')",
            "type": "text"
        },
        {
            "name": "semester",
            "filter": "(student/semester eq '${value}')",
            "type": "text"
        },
        {
            "name": "atLeastOneFailed",
            "filter": "${value >= 1  ? '(message ne null)': '(message eq null)'}",
            "type": "text"
        },
        {
            "name": "registrationPeriod",
            "filter": "(action/registrationPeriod/id eq ${value})",
            "type": "text"
        },
        {
            "name": "registrationYear",
            "filter": "(action/registrationYear eq ${value})",
            "type": "text"
        }
    ]
}
