{
  "title": "StudentPeriodRegistrations.Courses",
  "model": "StudentCourseClasses",
  "searchExpression":"indexof(courseClass/title, '${text}') ge 0 or indexof(courseClass/course/displayCode, '${text}') ge 0",
  "multipleSelect": true,
  "columns": [
    {
      "name": "id",
      "formatter": "ButtonFormatter",
      "property": "id",
      "className": "text-center",
      "formatOptions": {
        "buttonContent": "<i class=\"fas fa-edit text-indigo\"></i>",
        "buttonClass": "btn btn-default",
        "commands": [
          { "outlets":
          {
            "modal":["item", "${id}", "edit"]
          }
          }
        ],
        "navigationExtras": {
          "replaceUrl": false,
          "skipLocationChange": true
        }
      }
    },
    {
      "name":"registration",
      "property": "registration",
      "hidden" : true,
      "title":"registration"
    },
    {
      "name":"course/displayCode",
      "property": "displayCode",
      "title":"Courses.DisplayCode"
    },
    {
      "name":"courseClass/title",
      "property": "name",
      "title":"Courses.TitleSingular"
    },
    {
      "name":"semester/name",
      "property": "semester",
      "title":"Courses.semester"
    },
    {
      "name":"coefficient",
      "property": "coefficient",
      "title":"Courses.Coefficient"
    },
    {
      "name":"courseClass",
      "property":"courseClass",
      "title":"Classes.courseClass",
      "hidden": true
    },
    {
      "name":"courseType/name",
      "property": "courseTypeName",
      "title":"Courses.CourseType.Label"
    },
    {
      "name":"sectionName",
      "property": "sectionName",
      "title":"Classes.SectionSingular"
    },
    {
      "name":"units",
      "property": "units",
      "title":"Courses.units"
    },
    {
      "name":"hours",
      "property":"hours",
      "title":"Courses.hours",
      "hidden": true
    },
    {
      "name":"ects",
      "property": "ects",
      "title":"Courses.ects"
    },
    {
      "name": "registrationType",
      "property": "registrationType",
      "title": "Classes.RegistrationType",
      "formatter": "TranslationFormatter",
      "formatString": "${value === 1 ? 'Yes' : 'No'}"
    },
    {
      "name": "autoRegistered/alternateName",
      "property": "autoRegistered",
      "title": "Classes.AutoRegistered",
      "formatter": "TranslationFormatter",
      "formatString": "AutoRegisterStatusTypes.${value}"
    },
    {
      "name":"absences",
      "property": "absences",
      "title":"Classes.Absences"
    },
    {
      "name": "status/name",
      "property": "status",
      "title": "Registrations.ClassStatus"
    },
    {
      "name": "isPassed",
      "property": "isPassed",
      "hidden": true
    },
    {
      "name": "formattedGrade",
      "property": "formattedGrade",
      "title": "Students.Grade",
      "formatter": "NgClassFormatter",
      "formatOptions": {
        "ngClass": {
          "text-success": "${isPassed}===1  && ${formattedGrade != null}",
          "text-danger": "${isPassed}===0 && ${formattedGrade != null}"
        }
      }
    }
  ],
  "defaults":{
    "orderBy": "semester asc,courseClass/title asc"
  },
  "paths": [

  ],
  "criteria" : [
    {
      "name": "semester",
      "filter": "(semester/name eq '${value}')",
      "type": "text"
    },
    {
      "name": "name",
      "filter": "(indexof(courseClass/title, '${value}') ge 0)",
      "type": "text"
    },
    {
      "name": "displayCode",
      "filter": "(indexof(course/displayCode, '${value}') ge 0)",
      "type": "text"
    },
    {
      "name": "courseSector",
      "filter": "(course/courseSector eq '${value}')",
      "type": "text"
    },
    {
      "name": "courseTypeName",
      "filter": "(course/courseType/course eq '${value}')",
      "type": "text"
    },
    {
      "name": "registrationType",
      "filter": "(registrationType/id eq '${value}')",
      "type": "text"
    },
    {
      "name": "status",
      "filter": "(status/id eq '${value}')",
      "type": "text"
    }
  ]
}
