{
  "model": "Companies",
  "settings": {
    "i18n": {}
  },
  "components": [
    {
      "type": "fieldset",
      "components": [
        {
          "label": "HTML",
          "tag": "h5",
          "className": "font-weight-normal",
          "content": "{{instance.i18next.translator.translate('New item')}}",
          "refreshOnChange": false,
          "tableView": false,
          "key": "subtitle",
          "type": "htmlelement",
          "input": false
        },
        {
          "columns": [
            {
              "components": [
                {
                  "label": "Name",
                  "labelPosition": "top",
                  "widget": {
                    "type": "input"
                  },
                  "validate": {
                    "required": true
                  },
                  "key": "name",
                  "type": "textfield",
                  "input": true,
                  "disabled": false
                }
              ],
              "width": 6
            },
            {
              "components": [
                {
                  "label": "Profession",
                  "labelPosition": "top",
                  "hidden": false,
                  "widget": {
                    "type": "input"
                  },
                  "validate": {
                    "required": false
                  },
                  "key": "profession",
                  "type": "textfield",
                  "input": true
                }
              ],
              "width": 6
            },
            {
              "components": [
                {
                  "label": "Description",
                  "labelPosition": "top",
                  "hidden": true,
                  "widget": {
                    "type": "input"
                  },
                  "validate": {
                    "required": false
                  },
                  "key": "description",
                  "type": "textarea",
                  "input": true
                }
              ],
              "width": 12
            },
            {
              "components": [
                {
                  "label": "VAT Number",
                  "labelPosition": "top",
                  "widget": {
                    "type": "input"
                  },
                  "validate": {
                    "required": false
                  },
                  "key": "vatNumber",
                  "type": "textfield",
                  "input": true,
                  "disabled": false
                }
              ],
              "width": 6
            },
            {
              "components": [
                {
                  "label": "VAT Office",
                  "labelPosition": "top",
                  "widget": {
                    "type": "input"
                  },
                  "validate": {
                    "required": false
                  },
                  "key": "vatOffice",
                  "type": "textfield",
                  "input": true,
                  "disabled": false
                }
              ],
              "width": 6
            },
            {
              "components": [
                {
                  "label": "Postal address",
                  "labelPosition": "top",
                  "widget": {
                    "type": "input"
                  },
                  "validate": {
                    "required": false
                  },
                  "key": "address",
                  "type": "textfield",
                  "input": true,
                  "disabled": false
                }
              ],
              "width": 6
            },
            {
              "components": [
                {
                  "label": "Phone number",
                  "labelPosition": "top",
                  "widget": {
                    "type": "input"
                  },
                  "validate": {
                    "required": false
                  },
                  "key": "phone",
                  "type": "textfield",
                  "input": true,
                  "disabled": false
                }
              ],
              "width": 6
            },
            {
              "components": [
                {
                  "label": "Email address",
                  "labelPosition": "top",
                  "widget": {
                    "type": "input"
                  },
                  "validate": {
                    "required": false
                  },
                  "key": "email",
                  "type": "textfield",
                  "input": true,
                  "disabled": false
                }
              ],
              "width": 6
            },
            {
              "components": [
                {
                  "label": "FAX",
                  "labelPosition": "top",
                  "widget": {
                    "type": "input"
                  },
                  "validate": {
                    "required": false
                  },
                  "key": "fax",
                  "type": "textfield",
                  "input": true,
                  "disabled": false
                }
              ],
              "width": 6
            }
          ],
          "customClass": "text-dark",
          "hideLabel": true,
          "type": "columns",
          "input": false
        }
      ]
    },
    {
      "type": "button",
      "label": "Submit",
      "key": "submit",
      "disableOnInvalid": true,
      "input": true
    }
  ]
}
