{
  "model": "GraduationRequestActions",
  "title": "Graduation Requests",
  "searchExpression": "indexof(student/studentIdentifier, '${text}') ge 0 or indexof(student/person/familyName, '${text}') ge 0 or indexof(student/person/givenName, '${text}') ge 0 or indexof(student/studyProgram/name, '${text}') ge 0 or indexof(student/studentStatus/name, '${text}') ge 0 or indexof(student/studyProgram/name, '${text}') ge 0))",
  "selectable": true,
  "multipleSelect": true,
  "columns": [
    {
      "name":"student/id",
      "property": "studentId",
      "hidden": true
    },
    {
      "name":"graduationEvent/id",
      "property": "graduationId",
      "hidden": true
    },
    {
      "name": "student/person/familyName",
      "property": "familyName",
      "title": "Students.fullName",
      "formatter": "TemplateFormatter",
      "formatString": "${familyName} ${givenName}"
    },
    {
      "name": "student/person/givenName",
      "property": "givenName",
      "title": "Students.fullName",
      "hidden": true
    },
    {
      "name": "student/studentIdentifier",
      "property": "studentIdentifier",
      "title": "Students.studentIdentifier"
    },
    {
      "name": "student/semester",
      "property":"semester",
      "title":"Students.Semester"
    },
    {
      "name": "student/studyProgram/name",
      "property": "studyProgram",
      "title": "Students.studyProgram"
    },
    {
      "name": "student/graduationGradeAdjusted",
      "property": "graduationGradeAdjusted",
      "title": "Graduations.Grade",
      "formatter": "TemplateFormatter",
      "formatString": "${studentStatus == 'declared' ? graduationGradeAdjustedDeclared : graduationGradeAdjusted}"
    },
    {
      "name": "student/declaration/graduationGradeAdjusted",
      "property": "graduationGradeAdjustedDeclared",
      "title": "Graduations.Grade",
      "hidden": true
    },
    {
      "name": "student/studentStatus/alternateName",
      "property": "studentStatus",
      "title": "Requests.StudentStatus",
      "formatter": "TranslationFormatter",
      "formatString": "StudentStatuses.${value}"
    },
    {
      "name": "actionStatus/alternateName",
      "property": "actionStatus",
      "title": "Graduations.Status",
      "formatters": [
        {
          "formatter": "TranslationFormatter",
          "formatString": "ActionStatusTypes.${value}"
        },
        {
          "formatter": "NgClassFormatter",
          "formatOptions": {
            "ngClass": {
              "text-danger": "'${actionStatus}'==='CancelledActionStatus' || '${actionStatus}'==='FailedActionStatus'",
              "text-theme": "'${actionStatus}'==='ActiveActionStatus' || '${actionStatus}'==='PotentialActionStatus'",
              "text-success": "'${actionStatus}'==='CompletedActionStatus'"
            }
          }
        }
      ]
    },
    {
      "name": "startTime",
      "property": "startTime",
      "title": "Requests.StartTime",
      "formatter": "DateTimeFormatter",
      "formatString": "shortDate"
    },
    {
      "name": "createdBy/alternateName",
      "property": "createdByName",
      "title": "Requests.CreatedBy"
    },
    {
      "name": "graduationValid",
      "property": "graduationValid",
      "title": "Graduations.GraduationValid",
      "formatter": "TrueFalseFormatter"
    },
    {
      "name": "attachmentValid",
      "property": "attachmentValid",
      "title": "Graduations.AttachmentValid",
      "formatter": "TrueFalseFormatter"
    },
    {
      "name": "createdBy/id",
      "property": "createdBy",
      "title": "Graduations.CreatedByID",
      "hidden": true
    },
    {
      "name": "id",
      "formatter": "ButtonFormatter",
      "formatString": "#/requests/${id}/",
      "className": "text-center",
      "formatOptions": {
        "buttonContent": "<i class=\"far fa-eye text-indigo\"></i>",
        "buttonClass": "btn btn-default"
      }
    }
  ],
  "defaults": {
    "filter": "",
    "orderBy": "student/person/familyName"
  },
  "criteria": [
    {
      "name": "studyProgram",
      "filter": "(indexof(student/studyProgram/name, '${value}') ge 0 )",
      "type": "text"
    },
    {
      "name": "studentName",
      "filter": "(indexof(student/person/familyName, '${value}') ge 0 or indexof(student/studentIdentifier, '${value}') ge 0)",
      "type": "text"
    },
    {
      "name": "actionStatus",
      "filter": "(actionStatus/alternateName eq '${value}')",
      "type": "text"
    },
    {
      "name": "studentIdentifier",
      "filter": "(indexof(student/studentIdentifier, '${value}') ge 0 )",
      "type": "text"
    },
    {
      "name": "graduationEventId",
      "filter": "(graduationEvent eq '${value}')",
      "type": "text"
    },
    {
      "name": "studentStatus",
      "filter": "(student/studentStatus/alternateName eq '${value}')",
      "type": "text"
    },
    {
      "name": "attachmentValid",
      "filter": "${value >=1 ? '(attachmentValid gt 0)': '(attachmentValid eq null or attachmentValid le 0)'}",
      "type": "text"
    },
    {
      "name": "graduationValid",
      "filter": "${value >=1 ? '(graduationValid gt 0)': '(graduationValid eq null or graduationValid le 0)'}",
      "type": "text"
    }
  ]
}
