{
    "title": "Instructors",
    "model": "Instructors",
    "searchExpression":"indexof(department/name, '${text}') ge 0 or indexof(category, '${text}') ge 0 or indexof(familyName, '${text}') ge 0 or indexof(givenName, '${text}') ge 0 or indexof(email, '${text}') ge 0 or indexof(instructorCode, '${text}') ge 0",
    "selectable": true,
    "multipleSelect": true,
    "columns": [
      {
        "name":"id",
        "property": "id",
        "formatter": "ActionLinkFormatter",
        "actions" : [
          {
            "title": "Instructors.Preview",
            "href": "#/instructors/${id}/dashboard"
          },
          {
            "title": "Instructors.Edit",
            "href": "#/instructors/${id}/edit"
          }
        ],
        "sortable": false
      },
      {
        "name": "familyName",
        "property": "familyName",
        "title":"Instructors.FullName",
        "formatter": "TemplateFormatter",
        "formatString": "${familyName} ${givenName}"
      },
      {
        "name":"givenName",
        "property": "givenName",
        "title":"Instructors.GivenName",
        "hidden": true
      },
      {
        "name":"department/name",
        "property": "departmentName",
        "title":"Instructors.Department"
      },
      {
        "name":"category",
        "title":"Instructors.Category"
      },
      {
        "name":"email",
        "title":"Instructors.Email"
      },
      {
        "name":"workPhone",
        "title":"Instructors.WorkPhone"
      },
      {
        "name": "user",
        "property": "user",
        "hidden": true
      }
    ],
    "defaults":{
    },
    "criteria": [
      {
        "name": "instructorName",
        "filter": "(indexof(familyName, '${value}') ge 0 or indexof(givenName, '${value}') ge 0)",
        "type": "text"
      },
      {
        "name": "departmentName",
        "filter": "(indexof(department/name, '${value}') ge 0)",
        "type": "text"
      },
      {
        "name": "category",
        "filter": "(indexof(category, '${value}') ge 0)",
        "type": "text"
      },
      {
        "name": "status",
        "filter": "(status eq '${value}')",
        "type": "text"
      },
      {
        "name": "workphone",
        "filter": "(indexof(workphone, '${value}') ge 0)",
        "type": "text"
      },
      {
        "name": "thisDepartment",
        "filter": "(department eq ${currentDepartment})",
        "type": "text"
      },
      {
        "name": "hasUser",
        "filter": "${value >=1 ? '(user ne null)': '(user eq null)'}",
        "type": "text"
      }
    ],
    "paths" : [
      {
        "name": "Instructors.All",
        "alternateName": "list/index",
        "show": true,
        "filter": { }
      },
      {
        "name": "Instructors.Active",
        "alternateName": "list/active",
        "show": true,
        "filter": {
          "status": "active"
        }
      },
      {
        "name": "Instructors.Professors",
        "alternateName": "list/professors",
        "show": true,
        "filter": {
          "category": "professor"
        }
      },
      {
        "name": "Instructors.Lecturers",
        "alternateName": "list/lecturers",
        "filter": {
          "category": "lecturer"
        }
      }
    ],
    "searches" : [
      {
        "name": "AdvancedSearch.PreDefinedLists.departmentInstructors",
        "filter": {
          "thisDepartment": true
        }
      }
    ]
  }
