{
  "model": "StudentGradeActionTraces",
  "searchExpression": "indexof(studentIdentifier, '${text}') ge 0 or indexof(familyName, '${text}') ge 0 or indexof(givenName, '${text}') ge 0 or indexof(student/studyProgram/abbreviation, '${text}') ge 0 or indexof(status/name, '${text}') ge 0 or indexof(student/studentStatus/name, '${text}') ge 0",
  "columns": [
    {
      "name": "id",
      "hidden": true
    },

    {
      "name":"studentIdentifier",
      "property": "studentIdentifier",
      "title":"Students.studentIdentifier"
    },
    {
      "name":"familyName",
      "property": "familyName",
      "title":"Students.fullName",
      "formatter": "TemplateFormatter",
      "formatString": "${familyName} ${givenName}"
    },
    {
      "name":"givenName",
      "property": "givenName",
      "title":"Students.GivenName",
      "hidden": true
    },
    {
      "name": "student/studyProgram/abbreviation",
      "property": "studyProgram",
      "title": "Students.studyProgram"
    },
    {
      "name": "student/semester",
      "property": "semester",
      "title": "Students.semester"
    },
    {
      "name": "formattedGrade",
      "property": "formattedGrade",
      "title": "Exams.Grade"
    },

    {
      "name": "status/alternateName",
      "property": "gradeStatus",
      "title": "Exams.GradeStatusTitle",
      "formatters": [
        {
          "formatter": "TranslationFormatter",
          "formatString": "Exams.GradeStatus.${value}"
        },
        {
          "formatter": "NgClassFormatter",
          "formatOptions": {
            "ngClass": {
              "text-danger": "'${gradeStatus}'==='failed'",
              "text-primary": "'${gradeStatus}'==='pending'",
              "text-success": "'${gradeStatus}'==='normal'"
            }
          }
        }
      ]
    }

  ],
  "criteria": [
    {
      "name": "actionId",
      "filter": "(action eq ${value})",
      "type": "text"
    },
    {
      "name": "studentName",
      "filter": "(indexof(familyName, '${value}') ge 0 or indexof(givenName, '${value}') ge 0)",
      "type": "text"
    },
    {
      "name": "studentIdentifier",
      "filter": "(indexof(studentIdentifier, '${value}') ge 0)"
    },
    {
      "name": "gradeStatus",
      "filter": "(status/alternateName eq '${value}')",
      "type": "text"
    }
  ],
  "defaults": {
    "orderBy": "studentIdentifier"
  }
}
