{
  "model": "StudentCourses",
  "title": "Student Courses",
  "subtitle": "Edit",
  "display": "form",
  "settings": {
    "i18n": {
      "el": {
        "Edit": "Επεξεργασία",
        "General": "Γενικά",
        "Course": "Μάθημα",
        "Type": "Τύπος",
        "Course Title": "Τίτλος μαθήματος",
        "Set course type according to rules and requirements of this study program.": "Ορίστε τον τύπο του μαθήματος σύμφωνα με τους κανόνες και τις προϋποθέσεις του προγράμματος σπουδών.",
        "Units": "Διδακτικές μονάδες",
        "Set course units. Course units will be used while validating degree requirements.": "Ορίστε τις διδακτικές μονάδες. Οι διδακτικές μονάδες ενός μαθήματος θα χρησιμοποιηθούν κατά τον έλεγχο προϋποθέσεων λήψης πτυχίου.",
        "ECTS": "ECTS",
        "Calculated in degree": "Υπολογίζεται στη λήψη πτυχίου",
        "Calculated in degree grade": "Υπολογίζεται στο βαθμό του πτυχίου",
        "Program Group": "Ομάδα προγράμματος σπουδών",
        "Specialty": "Κατεύθυνση",
        "Set ECTS units. Course ECTS will be used while validating degree requirements.": "Ορίστε τις μονάδες ECTS. Οι μονάδες ECTS ενός μαθήματος θα χρησιμοποιηθούν κατά τον έλεγχο προϋποθέσεων λήψης πτυχίου.",
        "Set course semester according to rules and requirements of this study program.": "Ορίστε το εξάμηνο του μαθήματος σύμφωνα με τους κανόνες και τις προϋποθέσεις του προγράμματος σπουδών.",
        "Set course coefficient. This attribute is going to used while calculating degree grade.": "Ορίστε τον συντελεστή του μαθήματος. Το στοιχείο αυτό θα χρησιμοποιηθεί κατά τον υπολογισμό του βαθμού πτυχίου.",
        "Study program course": "Μάθημα προγράμματος σπουδών",
        "Set the student grade": "Ορίστε τον βαθμό του φοιτητή",
        "Exemption": "Απαλλαγή",
        "Exemption/Recognition": "Απαλλαγή/Αναγνώριση",
        "Calculated Units": "Υπολογίζεται στις μονάδες",
        "Calculated Grade": "Υπολογίζεται στο βαθμό",
        "Set the course title for this alternate language": "Ορίστε τον τίτλο του μαθήματος σε αυτήν την εναλλακτική γλώσσα.",
        "Set the course notes for this alternate language": "Ορίστε τις σημειώσεις του μαθήματος σε αυτήν την εναλλακτική γλώσσα."
      }
    }
  },
  "components": [
    {
      "type": "fieldset",
      "components": [
        {
          "label": "HTML",
          "tag": "h5",
          "className": "font-weight-normal",
          "content": "{{instance.t(form.subtitle)}}",
          "refreshOnChange": false,
          "tableView": false,
          "key": "subtitle",
          "type": "htmlelement",
          "input": false
        },
        {
          "columns": [
            {
              "components": [
                {
                  "label": "Course Title",
                  "spellcheck": true,
                  "validate": {
                    "required": true
                  },
                  "widget": {
                    "type": "input"
                  },
                  "key": "courseTitle",
                  "type": "textfield",
                  "input": true,
                  "hideOnChildrenHidden": false
                },
                {
                  "label": "Type",
                  "labelPosition": "top",
                  "widget": "choicesjs",
                  "dataSrc": "url",
                  "data": {
                    "url": "CourseTypes?$top={{limit}}&$skip={{skip}}&$select=id,name&$filter=indexof(name, '{{encodeURIComponent(search||'')}}') ge 0&$orderby=name",
                    "headers": []
                  },
                  "validate": {
                    "required": true
                  },
                  "template": "<span class='col-4 text-truncate'>{{ item.name }}</span>",
                  "searchEnabled": true,
                  "searchThreshold": "0.3",
                  "searchField": "search",
                  "selectValues": "value",
                  "key": "courseType",
                  "limit": 15,
                  "dataType": "object",
                  "idPath": "id",
                  "type": "select",
                  "input": true,
                  "lazyLoad": true,
                  "description": "Set course type according to rules and requirements of this study program."
                },
                {
                  "label": "Semester",
                  "labelPosition": "top",
                  "widget": "choicesjs",
                  "dataSrc": "url",
                  "data": {
                    "url": "Semesters?$orderby=id",
                    "headers": []
                  },
                  "template": "<span class='col-4 text-truncate'>{{ item.name }}</span>",
                  "selectValues": "value",
                  "key": "semester",
                  "searchEnabled": false,
                  "type": "select",
                  "input": true,
                  "lazyLoad": false,
                  "description": "Set course semester according to rules and requirements of this study program.",
                  "validate": {
                    "required": true
                  }
                },
                {
                  "label": "Specialty",
                  "labelPosition": "top",
                  "widget": "choicesjs",
                  "dataSrc": "url",
                  "data": {
                    "url": "StudyProgramSpecialties?$filter=(specialty eq -1) or (specialty eq {{data?.student?.specialtyId}}) and (studyProgram eq {{data?.student?.studyProgram?.id}})&$orderby=id",
                    "headers": []
                  },
                  "template": "<span class='col-4 text-truncate'>{{ item.name }}</span>",
                  "selectValues": "value",
                  "key": "specialty",
                  "searchEnabled": false,
                  "type": "select",
                  "input": true,
                  "lazyLoad": true,
                  "customClass": "pt-2",
                  "customConditional": "show = !!(data.student && data.student.specialtyId && data.student.studyProgram && data.student.studyProgram.id);",
                  "validate": {
                    "required": true
                  }
                },
                {
                  "label": "Exemption/Recognition",
                  "tableView": true,
                  "key": "registrationType",
                  "type": "checkbox",
                  "input": true,
                  "defaultValue": false,
                  "customClass": "my-3 py-3"
                },
                {
                  "label": "Grade",
                  "mask": false,
                  "spellcheck": true,
                  "tableView": false,
                  "delimiter": true,
                  "requireDecimal": false,
                  "inputFormat": "plain",
                  "validate": {
                    "required": "!!data.registrationType && data.gradeScale.scaleType === 0"
                  },
                  "key": "formattedGradeNum",
                  "type": "input",
                  "input": true,
                  "description": "Set the student grade",
                  "customConditional": "show = !!data.registrationType && data.gradeScale.scaleType === 0",
                  "clearOnHide": true
                },
                {
                  "label": "Grade",
                  "labelPosition": "top",
                  "widget": "choicesjs",
                  "dataSrc": "url",
                  "data": {
                    "url": "GradeScales/{{data.gradeScale.id}}/values",
                    "headers": []
                  },
                  "template": "<span class='col-4 text-truncate'>{{ item.name }}</span>",
                  "selectValues": "value",
                  "valueProperty": "alternateName",
                  "key": "formattedGradeVal",
                  "searchEnabled": false,
                  "type": "select",
                  "input": true,
                  "lazyLoad": true,
                  "customClass": "pt-2",
                  "customConditional": "show = !!data.registrationType && data.gradeScale.scaleType !== 0;",
                  "validate": {
                    "required": "!!data.registrationType && data.gradeScale.scaleType !== 0"
                  }
                },
                {
                  "label": "Notes",
                  "labelPosition": "top",
                  "widget": {
                    "type": "input"
                  },
                  "validate": {
                    "required": false
                  },
                  "key": "notes",
                  "type": "textarea",
                  "input": true,
                  "customClass": "my-3 py-3"
                }
              ],
              "width": 6,
              "offset": 0,
              "push": 0,
              "pull": 0
            },
            {
              "components": [
                {
                  "label": "Units",
                  "mask": false,
                  "spellcheck": true,
                  "tableView": false,
                  "delimiter": false,
                  "requireDecimal": false,
                  "inputFormat": "plain",
                  "validate": {
                    "required": true
                  },
                  "key": "units",
                  "type": "number",
                  "input": true,
                  "hideOnChildrenHidden": false,
                  "description": "Set course units. Course units will be used while validating degree requirements."
                },
                {
                  "label": "ECTS",
                  "mask": false,
                  "spellcheck": true,
                  "tableView": false,
                  "delimiter": false,
                  "requireDecimal": false,
                  "inputFormat": "plain",
                  "validate": {
                    "required": true
                  },
                  "key": "ects",
                  "type": "number",
                  "input": true,
                  "hideOnChildrenHidden": false,
                  "description": "Set ECTS units. Course ECTS will be used while validating degree requirements."
                },
                {
                  "label": "Coefficient",
                  "mask": false,
                  "spellcheck": true,
                  "tableView": false,
                  "delimiter": false,
                  "requireDecimal": false,
                  "inputFormat": "plain",
                  "validate": {
                    "required": true,
                    "integer": false
                  },
                  "key": "coefficient",
                  "type": "number",
                  "input": true,
                  "hideOnChildrenHidden": false,
                  "description": "Set course coefficient. This attribute is going to used while calculating degree grade."
                },
                {
                  "label": "Program Group",
                  "labelPosition": "top",
                  "widget": "choicesjs",
                  "dataSrc": "url",
                  "data": {
                    "url": "ProgramGroups?$filter=program eq {{data?.student?.studyProgram?.id}} and (groupType/alternateName eq 'simple' or groupType/alternateName eq 'freeChoices') and (indexof(name, '{{encodeURIComponent(search||'')}}') ge 0)&$top={{limit}}&$skip={{skip}}&$select=id,name",
                    "headers": []
                  },
                  "template": "<span class='col-4 text-truncate'>{{ item.name }}</span>",
                  "selectValues": "value",
                  "key": "programGroup",
                  "type": "select",
                  "input": true,
                  "customClass": "pt-2",
                  "customConditional": "show = !!(data.student && data.student.studyProgram && data.student.studyProgram.id);",
                  "validate": {
                    "required": false
                  },
                  "searchEnabled": true,
                  "searchThreshold": "0.3",
                  "searchField": "search",
                  "limit": 15,
                  "dataType": "object",
                  "idPath": "id",
                  "lazyLoad": true
                },
                {
                  "label": "Academic Year",
                  "widget": "choicesjs",
                  "searchEnabled": false,
                  "searchFields": [
                    "value.id",
                    "value.alternateName"
                  ],
                  "dataSrc": "url",
                  "data": {
                    "url": "AcademicYears?$orderby=id desc",
                    "headers": []
                  },
                  "selectThreshold": 0.3,
                  "template": "<span class='d-block pr-5 text-truncate'>{{ item.alternateName }}</span>",
                  "key": "gradeYear",
                  "selectValues": "value",
                  "type": "select",
                  "input": true,
                  "hideOnChildrenHidden": false,
                  "disableLimit": false,
                  "lazyLoad": false,
                  "customConditional": "show = !!data.registrationType",
                  "logic": [
                    {
                      "name": "disableLogic",
                      "trigger": {
                        "type": "simple",
                        "simple": {
                          "show": true,
                          "when": "registrationType",
                          "eq": false
                        }
                      },
                      "actions": [
                        {
                          "name": "disableAction",
                          "type": "property",
                          "property": {
                            "label": "Disabled",
                            "value": "disabled",
                            "type": "boolean"
                          },
                          "state": true
                        }
                      ]
                    },
                    {
                      "name": "requiredLogic",
                      "trigger": {
                        "type": "simple",
                        "simple": {
                          "show": true,
                          "when": "registrationType",
                          "eq": true
                        }
                      },
                      "actions": [
                        {
                          "name": "requiredAction",
                          "type": "property",
                          "property": {
                            "label": "Required",
                            "value": "validate.required",
                            "type": "boolean"
                          },
                          "state": true
                        }
                      ]
                    }
                  ],
                  "clearOnHide": true
                },
                {
                  "label": "Period",
                  "labelPosition": "top",
                  "widget": "choicesjs",
                  "dataSrc": "url",
                  "data": {
                    "url": "AcademicPeriods",
                    "headers": []
                  },
                  "searchFields": [
                    "value.id",
                    "value.alternateName"
                  ],
                  "template": "<span class='d-block pr-5 text-truncate'>{{ item.name }}</span>",
                  "selectValues": "value",
                  "key": "gradePeriod",
                  "lazyLoad": false,
                  "type": "select",
                  "input": true,
                  "customConditional": "show = !!data.registrationType",
                  "logic": [
                    {
                      "name": "disableLogic",
                      "trigger": {
                        "type": "simple",
                        "simple": {
                          "show": true,
                          "when": "registrationType",
                          "eq": false
                        }
                      },
                      "actions": [
                        {
                          "name": "disableAction",
                          "type": "property",
                          "property": {
                            "label": "Disabled",
                            "value": "disabled",
                            "type": "boolean"
                          },
                          "state": true
                        }
                      ]
                    },
                    {
                      "name": "requiredLogic",
                      "trigger": {
                        "type": "simple",
                        "simple":{
                          "show": true,
                          "when": "registrationType",
                          "eq": true
                        }
                      },
                      "actions": [
                        {
                          "name": "requiredAction",
                          "type": "property",
                          "property": {
                            "label": "Required",
                            "value": "validate.required",
                            "type": "boolean"
                          },
                          "state": true
                        }
                      ]
                    }
                  ],
                  "clearOnHide": true
                },
                {
                  "label": "Calculated in degree",
                  "tableView": true,
                  "key": "calculateUnits",
                  "type": "checkbox",
                  "input": true,
                  "defaultValue": false,
                  "customClass": "my-3 py-3",
                  "validate": {
                    "required": false
                  }
                },
                {
                  "label": "Calculated in degree grade",
                  "tableView": true,
                  "key": "calculateGrade",
                  "type": "checkbox",
                  "input": true,
                  "defaultValue": false,
                  "customClass": "my-3 py-3",
                  "validate": {
                    "required": false
                  },
                  "calculateValue": "value = (!!data.registrationType === !!data.formattedGradeNum || !!data.registrationType === !!data.formattedGradeVal || (!data.registrationType && data.formattedGradeNum.length)) && data.calculateGrade"
                }
              ],
              "width": 6,
              "offset": 0,
              "push": 0,
              "pull": 0
            },
            {
              "components": [
                {
                  "key": "fieldSet",
                  "type": "fieldset",
                  "input": false,
                  "customClass": "mt-2 font-weight-normal",
                  "components": [
                    {
                      "label": "",
                      "hideLabel": true,
                      "key": "locales",
                      "type": "datagrid",
                      "disableAddingRemovingRows": true,
                      "input": true,
                      "customClass": "fix-panel-for-locales border-0 p-0",
                      "components": [
                        {
                          "collapsible": false,
                          "hideLabel": true,
                          "key": "panel",
                          "type": "panel",
                          "title": "",
                          "hideTitle": true,
                          "input": false,
                          "tableView": false,
                          "components": [
                            {
                              "content": "<div class=\"h6 font-weight-bold text-secondary border-bottom pb-3 border-gray-200 font-weight-normal\">{{instance.t(row.inLanguage)}}</div>",
                              "refreshOnChange": false,
                              "key": "html",
                              "type": "htmlelement",
                              "input": false,
                              "tableView": false,
                              "customConditional": "show = row.inLanguage && row.inLanguage.length"
                            },
                            {
                              "label": "Course Title",
                              "tableView": true,
                              "description": "Set the course title for this alternate language",
                              "key": "courseTitle",
                              "type": "textfield",
                              "validate": {
                                "maxLength": 150
                              },
                              "input": true
                            },
                            {
                              "label": "Notes",
                              "tableView": true,
                              "description": "Set the course notes for this alternate language",
                              "key": "notes",
                              "type": "textarea",
                              "validate": {
                                "maxLength": 100
                              },
                              "input": true
                            }
                          ]
                        }
                      ]
                    }
                  ]
                }
              ],
              "width": 12
            }
          ],
          "hideLabel": true,
          "type": "columns",
          "input": false
        }
      ]
    },
    {
      "type": "button",
      "label": "Submit",
      "key": "submit",
      "theme": "indigo",
      "hidden": true,
      "disableOnInvalid": true,
      "input": true,
      "tableView": false
    }
  ]
}
