{
  "components": [
    {
      "label": "Columns",
      "columns": [
        {
          "components": [
            {
              "label": "Students.studentIdentifier",
              "spellcheck": true,
              "tableView": true,
              "validate": {
                "unique": false,
                "multiple": false
              },
              "key": "studentIdentifier",
              "type": "textfield",
              "input": true,
              "hideOnChildrenHidden": false
            }
          ],
          "width": 3,
          "offset": 0,
          "push": 0,
          "pull": 0
        },
        {
          "components": [
            {
              "label": "Students.fullName",
              "spellcheck": true,
              "tableView": true,
              "validate": {
                "unique": false,
                "multiple": false
              },
              "key": "studentName",
              "type": "textfield",
              "input": true,
              "hideOnChildrenHidden": false
            }
          ],
          "width": 5,
          "offset": 0,
          "push": 0,
          "pull": 0
        },
        {
          "components": [
            {
              "label": "Students.UserName",
              "spellcheck": true,
              "tableView": true,
              "validate": {
                "unique": false,
                "multiple": false
              },
              "key": "username",
              "type": "textfield",
              "input": true,
              "hideOnChildrenHidden": false
            }
          ],
          "width": 4,
          "offset": 0,
          "push": 0,
          "pull": 0
        },
        {
          "components": [
            {
              "label": "Students.studyProgram",
              "labelPosition": "top",
              "widget": "choicesjs",
              "key": "studyProgram",
              "dataSrc": "url",
              "data": {
                "url": "StudyPrograms?$top=-1&$skip=0&$filter=department eq '{{form.department}}'",
                "headers": []
              },
              "template": "{{ item.name }}",
              "selectValues": "value",
              "valueProperty": "id",
              "type": "select",
              "input": true,
              "disabled": false,
              "lazyLoad": false,
              "searchEnabled": true
            }
          ],
          "width": 4,
          "offset": 0,
          "push": 0,
          "pull": 0
        },
        {
          "components": [
            {
              "label": "Students.Specialty",
              "labelPosition": "top",
              "widget": "choicesjs",
              "dataSrc": "url",
              "data": {
                "url": "/StudyProgramSpecialties?$select=id,name&$filter=studyProgram eq {{data.studyProgram || 0}}",
                "headers": []
              },
              "dataType": "object",
              "idPath": "id",
              "redrawOn": "studyProgram",
              "lazyLoad": true,
              "clearOnRefresh": true,
              "template": "<span class='d-block pr-5 text-truncate'>{{ item.name }}</span>",
              "selectThreshold": 0.3,
              "key": "studyProgramSpecialty",
              "type": "select",
              "selectValues": "value",
              "input": true

            }
          ],
          "width": 4
        },
        {
          "components": [
            {
              "label": "Students.GraduationTitle",
              "spellcheck": true,
              "tableView": true,
              "validate": {
                "unique": false,
                "multiple": false
              },
              "key": "graduationTitle",
              "type": "textfield",
              "input": true,
              "hideOnChildrenHidden": false
            }
          ],
          "width": 5,
          "offset": 0,
          "push": 0,
          "pull": 0
        },
        {
          "components": [
            {
              "label": "Students.GraduationNumber",
              "spellcheck": false,
              "tableView": true,
              "validate": {
                "unique": false,
                "multiple": false
              },
              "key": "graduationNumber",
              "type": "textfield",
              "input": true,
              "hideOnChildrenHidden": false
            }
          ],
          "width": 3,
          "offset": 0,
          "push": 0,
          "pull": 0
        },
        {
          "components": [
            {
              "label": "Students.GraduationYear",
              "widget": "choicesjs",
              "dataSrc": "url",
              "data": {
                "url": "AcademicYears?$orderby=id desc",
                "headers": []
              },
              "validate": {
                "unique": false,
                "multiple": false
              },
              "template": "{{ item.name }}",
              "key": "graduationYear",
              "valueProperty": "id",
              "selectValues": "value",
              "type": "select",
              "searchEnabled": true,
              "input": true,
              "lazyLoad": false
            }
          ],
          "width": 3,
          "offset": 0,
          "push": 0,
          "pull": 0
        },
        {
          "components": [
            {
              "label": "Students.GraduationPeriod",
              "widget": "choicesjs",
              "dataSrc": "url",
              "data": {
                "url": "AcademicPeriods?$orderby=id",
                "headers": []
              },
              "validate": {
              },
              "template": "{{ item.name }}",
              "key": "graduationPeriod",
              "valueProperty": "id",
              "selectValues": "value",
              "type": "select",
              "input": true,
              "hideOnChildrenHidden": false,
              "disableLimit": false,
              "lazyLoad": false,
              "searchEnabled": false
            }
          ],
          "width": 3,
          "offset": 0,
          "push": 0,
          "pull": 0
        },
        {
          "components": [
            {
              "label": "Students.GraduatedAfter",
              "tableView": false,
              "enableTime": false,
              "enableMinDateInput": false,
              "datePicker": {
                "disableWeekends": false,
                "disableWeekdays": false
              },
              "enableMaxDateInput": false,
              "key": "minDate",
              "type": "datetime",
              "input": true,
              "widget": {
                "type": "calendar",
                "displayInTimezone": "viewer",
                "locale": "en",
                "useLocaleSettings": false,
                "allowInput": true,
                "mode": "single",
                "enableTime": true,
                "noCalendar": false,
                "format": "yyyy-MM-dd",
                "hourIncrement": 1,
                "minuteIncrement": 1,
                "time_24hr": true,
                "disableWeekends": false,
                "disableWeekdays": false
              }
            }
          ],
          "width": 3,
          "offset": 0,
          "push": 0,
          "pull": 0
        },
        {
          "components": [
            {
              "label": "Students.inscriptionYear",
              "widget": "choicesjs",
              "dataSrc": "url",
              "data": {
                "url": "AcademicYears?$orderby=id desc",
                "headers": []
              },
              "selectThreshold": 0.3,
              "validate": {
                "unique": false,
                "multiple": false
              },
              "template": "{{ item.name }}",
              "key": "inscriptionYear",
              "valueProperty": "id",
              "selectValues": "value",
              "type": "select",
              "searchEnabled": true,
              "input": true,
              "lazyLoad": false
            }
          ],
          "width": 3,
          "offset": 0,
          "push": 0,
          "pull": 0
        },
        {
          "components": [
            {
              "label": "Students.inscriptionPeriod",
              "widget": "choicesjs",
              "dataSrc": "url",
              "data": {
                "url": "AcademicPeriods?$orderby=id",
                "headers": []
              },
              "selectThreshold": 0.3,
              "validate": {
              },
              "template": "{{ item.name }}",
              "key": "inscriptionPeriod",
              "valueProperty": "id",
              "selectValues": "value",
              "type": "select",
              "input": true,
              "hideOnChildrenHidden": false,
              "disableLimit": false,
              "lazyLoad": false,
              "searchEnabled": false
            }
          ],
          "width": 3,
          "offset": 0,
          "push": 0,
          "pull": 0
        },
        {
          "components": [
            {
              "label": "Students.GraduatedBefore",
              "tableView": false,
              "enableMinDateInput": false,
              "enableTime": false,
              "datePicker": {
                "disableWeekends": false,
                "disableWeekdays": false
              },
              "enableMaxDateInput": false,
              "key": "maxDate",
              "type": "datetime",
              "input": true,
              "widget": {
                "type": "calendar",
                "displayInTimezone": "viewer",
                "useLocaleSettings": true,
                "allowInput": true,
                "mode": "single",
                "enableTime": true,
                "noCalendar": false,
                "time_24hr": false,
                "disableWeekends": false,
                "disableWeekdays": false
              }
            }
          ],
          "width": 3,
          "offset": 0,
          "push": 0,
          "pull": 0
        },
        {
          "components": [
            {
              "label": "Students.Semester",
              "widget": "choicesjs",
              "dataSrc": "url",
              "data": {
                "url": "Semesters?$orderby=id",
                "headers": []
              },
              "selectThreshold": 0.3,
              "validate": {
              },
              "template": "{{ item.name }}",
              "key": "semester",
              "valueProperty": "id",
              "selectValues": "value",
              "type": "select",
              "input": true,
              "hideOnChildrenHidden": false,
              "disableLimit": false,
              "lazyLoad": false
            }
          ],
          "width": 3,
          "offset": 0,
          "push": 0,
          "pull": 0
        },
        {
          "components": [
            {
              "label": "Students.HasUser",
              "widget": "choicesjs",
              "data": {
                "values": [
                  {
                    "label": "Yes",
                    "value": 1
                  },
                  {
                    "label": "No",
                    "value": -1
                  }
                ]
              },
              "selectThreshold": 0.3,
              "validate": {
                "unique": false,
                "multiple": false
              },
              "key": "hasUser",
              "valueProperty": "value",
              "selectValues": "value",
              "type": "select",
              "input": true,
              "searchEnabled": false,
              "hideOnChildrenHidden": false,
              "disableLimit": false,
              "lazyLoad": false
            }
          ],
          "width": 2,
          "offset": 0,
          "push": 0,
          "pull": 0
        }
      ],
      "tableView": false,
      "key": "columns1",
      "type": "columns",
      "input": false,
      "path": "columns1"
    }
  ]
}
