{
    "model": "Students",
    "title": "Students.CompleteInscription",
    "components": [
        {
            "legend": "Student Information",
            "key": "fieldset",
            "type": "fieldset",
            "input": false,
            "components": [
                {
                    "columns": [
                        {
                            "components": [
                                {
                                    "label": "Department",
                                    "widget": "choicesjs",
                                    "dataSrc": "url",
                                    "defaultValue": "",
                                    "labelPosition": "top",
                                    "searchEnabled": true,
                                    "data": {
                                        "values": [],
                                        "url": "/LocalDepartments/?$top=-1&$orderby=name&$select=id,name",
                                        "headers": []
                                    },
                                    "validate": {
                                        "required": false
                                    },
                                    "valueProperty": "id",
                                    "lazyLoad": false,
                                    "limit": 200,
                                    "dataType": "string",
                                    "template": "<span class='d-block pr-5 text-truncate' title='{{ item.id }} - {{ item.name }}'>{{ item.id }} - {{ item.name }} </span>",
                                    "selectThreshold": 0.3,
                                    "key": "department",
                                    "type": "select",
                                    "selectValues": "value",
                                    "input": true,
                                    "disabled": true
                                }
                            ],
                            "width": 9,
                            "offset": 0,
                            "push": 0,
                            "pull": 0
                        },
                        {
                            "components": [
                                {
                                    "label": "Status",
                                    "labelPosition": "top",
                                    "widget": "choicesjs",
                                    "dataSrc": "url",
                                    "data": {
                                        "url": "StudentStatuses?$orderby=name",
                                        "headers": []
                                    },
                                    "template": "<span class='d-block pr-5 text-truncate' title='{{ item.name }}' >{{ item.name }}</span>",
                                    "selectValues": "value",
                                    "key": "studentStatus",
                                    "searchEnabled": false,
                                    "type": "select",
                                    "input": true,
                                    "disabled": false,
                                    "lazyLoad": false
                                }
                            ],
                            "width": 3,
                            "offset": 0,
                            "push": 0,
                            "pull": 0
                        }
                    ],
                    "customClass": "text-dark",
                    "type": "columns",
                    "input": false
                },
                {
                    "columns": [
                        {
                            "components": [
                                {
                                    "label": "Given Name",
                                    "key": "person.givenName",
                                    "labelPosition": "top",
                                    "dataSrc": "url",
                                    "widget": {
                                        "type": "input"
                                    },
                                    "validate": {
                                        "required": false
                                    },
                                    "type": "textfield",
                                    "input": true
                                }
                            ],
                            "width": 3,
                            "offset": 0,
                            "push": 0,
                            "pull": 0
                        },
                        {
                            "components": [
                                {
                                    "label": "Family Name",
                                    "labelPosition": "top",
                                    "widget": "choicesjs",
                                    "dataSrc": "url",
                                    "selectValues": "value",
                                    "type": "textfield",
                                    "key": "person.familyName",
                                    "input": true,
                                    "validate": {
                                        "required": false
                                    }
                                }
                            ],
                            "width": 3,
                            "offset": 0,
                            "push": 0,
                            "pull": 0
                        },
                        {
                            "components": [
                                {
                                    "label": "Father's Name",
                                    "labelPosition": "top",
                                    "widget": "choicesjs",
                                    "dataSrc": "url",
                                    "selectValues": "value",
                                    "type": "textfield",
                                    "input": true,
                                    "key": "person.fatherName",
                                    "validate": {
                                        "required": false
                                    }
                                }
                            ],
                            "width": 3,
                            "offset": 0,
                            "push": 0,
                            "pull": 0
                        },
                        {
                            "components": [
                                {
                                    "label": "Mother's Name",
                                    "labelPosition": "top",
                                    "key": "person.motherName",
                                    "widget": {
                                        "type": "input"
                                    },
                                    "type": "textfield",
                                    "input": true,
                                    "validate": {
                                        "required": false
                                    }
                                }
                            ],
                            "width": 3,
                            "offset": 0,
                            "push": 0,
                            "pull": 0
                        }
                    ],
                    "customClass": "text-dark",
                    "hideLabel": true,
                    "type": "columns",
                    "input": false
                },
                {
                    "columns": [
                        {
                            "components": [
                                {
                                    "label": "Student Number",
                                    "labelPosition": "top",
                                    "widget": "choicesjs",
                                    "type": "number",
                                    "input": true,
                                    "key": "studentIdentifier",
                                    "validate": {
                                        "required": false
                                    },
                                    "disabled": true
                                }
                            ],
                            "width": 3,
                            "offset": 0,
                            "push": 0,
                            "pull": 0
                        },
                        {
                            "components": [
                                {
                                    "label": "User Name",
                                    "labelPosition": "top",
                                    "widget": {
                                        "type": "input"
                                    },
                                    "key": "user.name",
                                    "type": "textfield",
                                    "input": true,
                                    "validate": {
                                        "required": false
                                    },
                                    "disabled": true
                                }
                            ],
                            "width": 3,
                            "offset": 0,
                            "push": 0,
                            "pull": 0
                        },
                        {
                            "components": [
                                {
                                    "label": "Gender",
                                    "labelPosition": "top",
                                    "dataSrc": "url",
                                    "data": {
                                        "url": "Genders",
                                        "headers": []
                                    },
                                    "template": "<span class='d-block pr-5 text-truncate'>{{ item.identifier }}</span>",
                                    "key": "person.gender",
                                    "type": "select",
                                    "input": true,
                                    "selectValues": "value",
                                    "widget": "choicesjs",
                                    "searchEnabled": false,
                                    "validate": {
                                        "required": false
                                    }
                                }
                            ],
                            "width": 3,
                            "offset": 0,
                            "push": 0,
                            "pull": 0
                        },
                        {
                            "components": [
                                {
                                    "label": "Semester",
                                    "labelPosition": "top",
                                    "widget": {
                                        "type": "input"
                                    },
                                    "key": "semester",
                                    "type": "number",
                                    "input": true,
                                    "disabled": true
                                }
                            ],
                            "width": 3,
                            "offset": 0,
                            "push": 0,
                            "pull": 0
                        }
                    ],
                    "customClass": "text-dark",
                    "type": "columns",
                    "input": false
                }
            ]
        },
        {
            "legend": "Registration information",
            "key": "fieldSet",
            "type": "fieldset",
            "input": false,
            "label": "Registration information",
            "components": [
                {
                    "columns": [
                        {
                            "components": [
                                {
                                    "label": "Inscription Year",
                                    "labelPosition": "top",
                                    "key": "inscriptionYear.alternateName",
                                    "type": "select",
                                    "searchEnabled": false,
                                    "dataSrc": "url",
                                    "data": {
                                        "url": "AcademicYears/?$top=90&$orderby=id desc",
                                        "headers": []
                                    },
                                    "template": "<span class='col-4 text-truncate'>{{ item.alternateName }}</span>",
                                    "input": true,
                                    "lazyLoad": true,
                                    "selectValues": "value",
                                    "widget": "choicesjs"
                                }
                            ],
                            "width": 3,
                            "offset": 0,
                            "push": 0,
                            "pull": 0
                        },
                        {
                            "components": [
                                {
                                    "label": "Inscription Period",
                                    "labelPosition": "top",
                                    "widget": "choicesjs",
                                    "dataSrc": "url",
                                    "data": {
                                        "url": "AcademicPeriods",
                                        "headers": []
                                    },
                                    "template": "<span class='col-4 text-truncate'>{{ item.name }}</span>",
                                    "selectValues": "value",
                                    "key": "inscriptionPeriod.name",
                                    "type": "select",
                                    "input": true,
                                    "searchEnabled": false
                                }
                            ],
                            "width": 3,
                            "offset": 0,
                            "push": 0,
                            "pull": 0
                        },
                        {
                            "components": [
                                {
                                    "label": "Inscription semester",
                                    "labelPosition": "top",
                                    "widget": {
                                        "type": "input"
                                    },
                                    "validate": {
                                        "required": false,
                                        "integer": true,
                                        "min": 1,
                                        "max": 12
                                    },
                                    "type": "number",
                                    "input": true,
                                    "key": "inscriptionSemester"
                                }
                            ],
                            "width": 3,
                            "offset": 0,
                            "push": 0,
                            "pull": 0
                        },
                        {
                            "components": [
                                {
                                    "label": "Inscription date",
                                    "labelPosition": "top",
                                    "enableTime": false,
                                    "widget": {
                                        "type": "input"
                                    },
                                    "validate": {
                                        "required": false
                                    },
                                    "type": "datetime",
                                    "format": "dd/MM/yyyy",
                                    "input": true,
                                    "key": "inscriptionDate"
                                }
                            ],
                            "width": 3,
                            "offset": 0,
                            "push": 0,
                            "pull": 0
                        }
                    ],
                    "customClass": "text-dark",
                    "type": "columns",
                    "input": false
                },
                {
                    "columns": [
                        {
                            "components": [
                                {
                                    "label": "Inscription mode",
                                    "widget": "choicesjs",
                                    "dataSrc": "url",
                                    "defaultValue": "",
                                    "labelPosition": "top",
                                    "searchEnabled": true,
                                    "data": {
                                        "values": [],
                                        "url": "/InscriptionModes/?$top=-1",
                                        "headers": []
                                    },
                                    "validate": {
                                        "required": false
                                    },
                                    "valueProperty": "id",
                                    "lazyLoad": false,
                                    "limit": 200,
                                    "dataType": "string",
                                    "template": "<span class='d-block pr-5 text-truncate' title='{{ item.name }}'> {{ item.name }} </span>",
                                    "selectThreshold": 0.3,
                                    "key": "inscriptionMode.id",
                                    "type": "select",
                                    "selectValues": "value",
                                    "input": true,
                                    "disabled": false
                                }
                            ],
                            "width": 12,
                            "offset": 0,
                            "push": 0,
                            "pull": 0
                        },
                        {
                            "components": [
                                {
                                    "label": "Inscription index",
                                    "labelPosition": "top",
                                    "key": "inscriptionIndex",
                                    "type": "number",
                                    "input": true,
                                    "selectValues": "value",
                                    "widget": "choicesjs",
                                    "validate": {
                                        "required": false
                                    }
                                }
                            ],
                            "width": 3,
                            "offset": 0,
                            "push": 0,
                            "pull": 0
                        },
                        {
                            "components": [
                                {
                                    "label": "Inscription decision",
                                    "labelPosition": "top",
                                    "widget": {
                                        "type": "input"
                                    },
                                    "validate": {
                                        "required": false
                                    },
                                    "type": "textfield",
                                    "input": true,
                                    "key": "inscriptionDecision"
                                }
                            ],
                            "width": 3,
                            "offset": 0,
                            "push": 0,
                            "pull": 0
                        },
                        {
                            "components": [
                                {
                                    "label": "Inscription points",
                                    "labelPosition": "top",
                                    "widget": {
                                        "type": "input"
                                    },
                                    "validate": {
                                        "required": false
                                    },
                                    "type": "number",
                                    "input": true,
                                    "key": "inscriptionPoints"
                                }
                            ],
                            "width": 3,
                            "offset": 0,
                            "push": 0,
                            "pull": 0
                        },
                        {
                            "components": [
                                {
                                    "label": "Inscription department",
                                    "labelPosition": "top",
                                    "key": "inscriptionDepartment",
                                    "type": "textfield",
                                    "input": true,
                                    "selectValues": "value",
                                    "widget": "choicesjs"
                                }
                            ],
                            "width": 3,
                            "offset": 0,
                            "push": 0,
                            "pull": 0
                        }
                    ],
                    "customClass": "text-dark",
                    "type": "columns",
                    "input": false
                },
                {
                    "columns": [
                        {
                            "components": [
                                {
                                    "label": "Ιnscription Comments",
                                    "labelPosition": "top",
                                    "widget": "choicesjs",
                                    "selectValues": "value",
                                    "key": "inscriptionComments",
                                    "type": "textarea",
                                    "rows": 1,
                                    "input": true,
                                    "searchEnabled": false
                                }
                            ],
                            "width": 12,
                            "offset": 0,
                            "push": 0,
                            "pull": 0
                        }
                    ],
                    "customClass": "text-dark",
                    "type": "columns",
                    "input": false
                }
            ]
        }
    ]
}