{
	"model": "Instructors",
	"components": [
		{
			"legend": "Add department",
			"type": "fieldset",
			"components": [
				{
					"columns": [
						{
							"components": [
								{
                                    "label": "Department",
                                    "labelPosition": "top",
                                    "widget": "choicesjs",
                                    "key": "department",
                                    "dataSrc": "url",
                                    "data": {
                                        "url": "LocalDepartments/?$select=id,name&$top=-1&$orderby=name",
                                        "headers": []
                                    },
                                    "template": "<span class='d-block pr-5 text-truncate'>{{ item.name }}</span>",
                                    "selectValues": "value",
                                    "type": "select",
                                    "input": true,
                                    "disabled": false,
                                    "lazyLoad": false,
                                    "searchEnabled": true,
									"searchFields":[ "value.id", "value.name" ],
									"validate": {
										"required": true
									}
                                }
							],
							"width": 12
						}
					],
					"customClass": "text-dark",
					"hideLabel": true,
					"type": "columns",
					"input": false
				}                  
			]
		},
		{
			"type": "button",
			"label": "Submit",
			"key": "submit",
			"disableOnInvalid": true,
			"input": true
		}
	]
}
