{
  "settings": {
    "i18n": {
      "el": {
        "Change grade scale": "Αλλαγή κλίμακας βαθμολογίας μαθήματος",
        "Course": "Μάθημα ([Κωδ. εμφ.] - Τίτλος)",
        "Current grade scale": "Τρέχουσα κλίμακα βαθμολογίας",
        "New grade scale": "Νέα κλίμακα βαθμολογίας",
        "Change grade scale of course parts": "Να αλλάξει και η κλίμακα βαθμολογίας των μερών του σύνθετου μαθήματος",
        "If this option is checked, the grade scale of the course parts of this course will be also changed.": "Με την επιλογή αυτή η \"Νέα κλίμακα βαθμολογίας\" θα εφαρμοστεί αυτόματα και σε όλα τα μερή του σύνθετου μαθήματος.",
        "Change grade scale of parent course and other course parts": "Να αλλάξει και η κλίμακα βαθμολογίας του πατρικόυ μαθήματος και των υπόλοιπων μερών του",
        "If this option is checked, the grade scale of the parent course and the other course parts will be also changed": "Με την επιλογή αυτή η \"Νέα κλίμακα βαθμολογίας\" θα εφαρμοστεί αυτόματα τόσο στο πατρικό μάθημα, όσο και στα υπόλοιπα μέρη του."
      }
    }
  },
  "components": [
    {
      "type": "fieldset",
      "legend": "Change grade scale",
      "components": [
        {
          "customClass": "text-dark",
          "hideLabel": true,
          "type": "columns",
          "input": true,
          "columns": [
            {
              "components": [
                {
                  "label": "Course",
                  "labelPosition": "top",
                  "widget": {
                    "type": "input"
                  },
                  "validate": {
                    "required": false
                  },
                  "key": "customName",
                  "calculateValue": "value = \"[\" + data.displayCode + \"]\" + \" - \" + data.name;",
                  "type": "textfield",
                  "input": true,
                  "disabled": true
                }
              ],
              "width": 6
            },
            {
              "components": [
                {
                  "label": "Course Structure Type",
                  "labelPosition": "top",
                  "widget": "choicesjs",
                  "searchEnabled": false,
                  "dataSrc": "url",
                  "data": {
                    "values": [],
                    "url": "/CourseStructureTypes?$top=-1&$skip=0&$select=id,name"
                  },
                  "dataType": "string",
                  "validate": {
                    "required": false
                  },
                  "selectThreshold": 0.3,
                  "lazyLoad": false,
                  "template": "{{ item.name }}",
                  "valueProperty": "id",
                  "selectValues": "value",
                  "key": "courseStructureType",
                  "type": "select",
                  "input": true,
                  "disabled": true
                }
              ],
              "width": 3
            },
            {
              "components": [
                {
                  "label": "Enabled",
                  "labelPosition": "top",
                  "widget": "choicesjs",
                  "searchEnabled": false,
                  "data": {
                    "values": [
                      {
                        "label": "No",
                        "value": "0"
                      },
                      {
                        "label": "Yes",
                        "value": "1"
                      }
                    ]
                  },
                  "validate": {
                    "required": false
                  },
                  "selectThreshold": 0.3,
                  "key": "isEnabled",
                  "type": "select",
                  "input": true,
                  "defaultValue": "0",
                  "disabled": "true"
                }
              ],
              "width": 3
            },
            {
              "components": [
                {
                  "label": "Current grade scale",
                  "labelPosition": "top",
                  "widget": "choicesjs",
                  "searchEnabled": true,
                  "dataSrc": "url",
                  "data": {
                    "values": [],
                    "url": "/GradeScales?$top=-1&$skip=0&$select=id,name"
                  },
                  "validate": {
                    "required": false
                  },
                  "selectThreshold": 0.3,
                  "lazyLoad": true,
                  "template": "{{ item.name }}",
                  "selectValues": "value",
                  "key": "gradeScale",
                  "type": "select",
                  "input": true,
                  "disabled" : true
                }
              ],
              "width": 6
            },
            {
              "components": [
                {
                  "label": "New grade scale",
                  "labelPosition": "top",
                  "widget": "choicesjs",
                  "searchEnabled": true,
                  "dataSrc": "url",
                  "data": {
                    "values": [],
                    "url": "/GradeScales?$top=-1&$skip=0&$select=id,name&$filter=id ne {{data.gradeScale.id}}"
                  },
                  "validate": {
                    "required": true
                  },
                  "selectThreshold": 0.3,
                  "lazyLoad": true,
                  "template": "{{ item.name }}",
                  "selectValues": "value",
                  "key": "newGradeScale",
                  "type": "select",
                  "input": true,
                  "disabled" : false,
                  "customConditional": "show = !!data.gradeScale"
                }
              ],
              "width": 6
            },
            {
              "components": [
                {
                  "label": "Change grade scale of course parts",
                  "description": "If this option is checked, the grade scale of the course parts of this course will be also changed.",
                  "tableView": false,
                  "key": "changeCoursePartsScale",
                  "type": "checkbox",
                  "input": true,
                  "defaultValue": false,
                  "hideOnChildrenHidden": false,
                  "customConditional": "show = (data.courseStructureType == 4);"
                }
              ],
              "width": 12
            },
            {
              "components": [
                {
                  "label": "Change grade scale of parent course and other course parts",
                  "description": "If this option is checked, the grade scale of the parent course and the other course parts will be also changed",
                  "tableView": false,
                  "key": "changeParentAndSiblingsScale",
                  "type": "checkbox",
                  "input": true,
                  "defaultValue": false,
                  "hideOnChildrenHidden": false,
                  "customConditional": "show = (data.courseStructureType == 8);"
                }
              ],
              "width": 12
            }
          ]
        }
      ]
    }
  ]
}
