{
    "settings": {
      "i18n": {
        "el": {
            "Last Obligation Date": "Ημερομηνία τελευταίας υποχρέωσης",
            "Set the last obligation date": "Επιλέξτε την ημερομηνία που θα οριστεί ως τελευταίας υποχρέωσης για τους φοιτητές"
        }
      }
    },
    "components": [
      {
        "type": "fieldset",
        "components": [
          {
            "columns": [
              {
                "components": [
                    {
                        "label": "Last Obligation Date",
                        "labelPosition": "top",
                        "widget": {
                            "type": "input"
                        },
                        "enableTime": false,
                        "key": "lastObligationDate",
                        "validate": {
                            "required": true
                        },
                        "type": "datetime",
                        "format": "dd/MM/yyyy",
                        "input": true,
                        "description": "Set the last obligation date"
                    }
                ],
                "width": 8
              }
            ],
            "customClass": "text-dark",
            "hideLabel": true,
            "type": "columns",
            "input": false
          }
        ]
      }
    ],
    "width": 3
  }
  